Modelo\CoordinadorSistema.class
Controlador\ControladorLogico.class
Modelo\Cliente.class
Prueba\Main.class
Controlador\ControladorPersistencia.class
Persistencia\ClientePersistencia.class
Excepciones\ClienteExistente.class
Modelo\Turno.class
